…
## Examples

``` r
library(twitchr)
```

``` r
twitch_auth()
```

``` r
cheermotes <- get_cheermotes(broadcaster_id = 41245072)

cheermotes
#> # A tibble: 180 x 30
#>    prefix type  order last_updated is_charitable tiers_min_bits tiers_id
#>    <chr>  <chr> <int> <chr>        <lgl>                  <int> <chr>   
#>  1 Cheer  glob~     1 2018-05-22T~ FALSE                      1 1       
#>  2 Cheer  glob~     1 2018-05-22T~ FALSE                    100 100     
#>  3 Cheer  glob~     1 2018-05-22T~ FALSE                   1000 1000    
#>  4 Cheer  glob~     1 2018-05-22T~ FALSE                   5000 5000    
#>  5 Cheer  glob~     1 2018-05-22T~ FALSE                  10000 10000   
#>  6 Doodl~ glob~     1 2018-05-22T~ FALSE                      1 1       
#>  7 Doodl~ glob~     1 2018-05-22T~ FALSE                    100 100     
#>  8 Doodl~ glob~     1 2018-05-22T~ FALSE                   1000 1000    
#>  9 Doodl~ glob~     1 2018-05-22T~ FALSE                   5000 5000    
#> 10 Doodl~ glob~     1 2018-05-22T~ FALSE                  10000 10000   
#> # ... with 170 more rows, and 23 more variables: tiers_color <chr>,
#> #   tiers_images_dark_animated_1 <chr>, tiers_images_dark_animated_1_5 <chr>,
#> #   tiers_images_dark_animated_2 <chr>, tiers_images_dark_animated_3 <chr>,
#> #   tiers_images_dark_animated_4 <chr>, tiers_images_dark_static_1 <chr>,
#> #   tiers_images_dark_static_1_5 <chr>, tiers_images_dark_static_2 <chr>,
#> #   tiers_images_dark_static_3 <chr>, tiers_images_dark_static_4 <chr>,
#> #   tiers_images_light_animated_1 <chr>, tiers_images_light_animated_1_5 <chr>,
#> #   tiers_images_light_animated_2 <chr>, tiers_images_light_animated_3 <chr>,
#> #   tiers_images_light_animated_4 <chr>, tiers_images_light_static_1 <chr>,
…
